username,email,password,title,firstname,lastname
5782974826,nk_immy@hotmail.com,D5417975FCFE017157FA79E291F4925B36E73B5AD804ED006E6212E59DFAACEBC2801757A1CCC18DDD52014E368038F22931F75285B8B06F2536470DF7F88AB2,Miss,Neetikarn,Kamlangwan
5581928626,umpppp@gmail.com,FAFFFAA66E92DB7B0C632F50DF4242198C811F708968853C2D03787394287BBBA3E5C43E2B18354FCCC27EF3C8B74A6E2FB042387CF67E6A56FA43380F7B40BF,Miss,Chuleeyon,Leangruenrom
5682949026,teerawat.muk@hotmail.com,2132D1A6BA0978CF389E32C6C7623F470B7208B92E4720B723C2419FF626B9D36BEE940748663B4E45237B71590E63DFDC18CB8AEB1430D328AFF2A8CECF53A4,Mr.,Teerawat,Mukdapitak
5482223926,aanongnat@gmail.com,1FF6C833A752FFF7C2D16A1E55626977BB6BDF4CB9C3359C73AA78363B630ADA8EF706C2209CC4304E0BCF3C5121758910CA99CAEFC9E4F0201E5413B9FF4218,Miss,Anongnart,Ajalasereewong
5382598126,Wat_ob@hotmail.com,D346485268AADEA0B1795DC4AE1A39988F0868EFBCA0FFBE008B13A5A9CC44A3313FE4C85A62A380D75BCE386FE9DBDAD0250A4E25A53208DFCF6A034DF6E664,Mr.,Wat,Pimolkiat
5581960626,dhanapol.b@gmail.com,DF779A9AC6B3E641435906B76B3318515B4CECFAF2E422E1BA586236C0A7427FC3D824370D5686A01B5AD63877D355DAB4EE0E6E11431EAEFD197B702066AE19,Mr.,Dhanapol,Bunditkrisada
5481859926,hway_kawisa@hotmail.com,5BD867432BCE98B0FBBB4879ADE865165D4F64A1178077D38E644925D2ED61AF4CC5A31343ED053EE9721472FCD498592250846169EEA79384B5DBAC5A62F8CA,Miss,Kawisa,Hemwej
5682992026,dekyingnongploy@gmail.com,0B79850D03BE0D7ACE4FFCA961F16A03AD3E50329BD062A0EEF49D3815E12232D287639ED596AD2840D338494595AE2C027E76C301DFF02A366693F8971727B8,Miss,Ratirut,Thanyavanich
5382604226,sweetest_pye@hotmail.com,C04321455C57D82ED5160E23AAF3F3A5A2AA055250F4E508309BABA4C88E3ED61C081B6C78474AD266AD30E1297431ECD0041F6A1A4D0642A968D30C537722B0,Miss,Waralee,Potiyanon
5382517326,pancake_pk@hotmail.com,877B9D2F156C1E3C91F9BC68FA67124B3BF142BF71F5091F4D33727A450E7162CF65DE65D0D9CA630E71598082E10542945759B853A927DFB1DE0C1564514E69,Miss,Phakapan,Kiatinawin
5582030126,fonthip.p@gmail.com,FFE5700C29A7084B097FB5C9F9F418E71641EF7C205970F1C744533E3E00A823B5FF32F3AC11AD3AD617446B3D40FECB66255631745D8EDF1F87A8B37309EF94,Miss,Fonthip,Poblarp
5682902526,kanokwan_issa@hotmail.com,26258D3F61C2D249521D3402C56A9B24FEE4D419C99768C86F117977E87441868E5282931B982D3A2A889FB5380212268ABC4C069B9567CBD32662F866A111A3,Miss,KANOKWAN,ISSARATTAPOL
5582888326,pboonc@gmail.com,6D09BC71278BC1DB8B5AA2A40CE930D0438BBF2F7CD1CCF747F907FD4B03A07BEEE48B423A4A03CA5D20B0A2DF0DD8FF018E88891E734105C15E7D5CF7013BA6,Mr.,Palm,Boonching
5582907626,Malee.fu@gmail.com,A389BDFE1A3006A44805FE64924F34F220BC6CFFD639FCA0B5C70B2CD86A643A211DA6F45EDFF2F4EC40EFC1820E57FD376AEEC4D8F278B2AE688AF34A83F4E7,Miss,Malee,Fuangfookijpysan
5482088526,montana.mekt@gmail.com,0984931B3898E99DDF1B71AEF31741BE5BFF2F3362D1575DCFB39233AA12C4870F3A4C75D7152ECF1802DEA7547890E8D22DF94E7D4A3119A8DB2E570E81059E,Miss,Montana,Mektavatchaikul
5782910626,ku_dachoviboon@hotmail.com,F0D01AD52BAABCEE4E4474E192E15D33BB5C27A34061E418AB1945EC51B38F956188B12C4E2D8A666A6ADBC5A1E85A273D5CCF80BB2243E673CBBD36E6323F98,Miss,Kullanart,Dachoviboon
5782990826,zyphyrus@windowslive.com,A389878F506A09A1C17AB77BD63E91E1BF74C781CBA8CC998DFF44C75AC2153D16336B2C3187757953FF72FFC30DC07DE0702F735B993EF4578DA92E87670887,Mr.,Pochara,Kulnarunartvanich
5783063226,apichartkerddonfag@gmail.com,7773AEFC1D8F03CA850BFC9DF6B995022E5C7FC23DBA9F86F45441E199C0738D92D0F577490F180DD123E8321227C1978E53F2BD7077455C0D794C58349C9870,Mr.,Apichart,Kerddonfag
5482944726,apirati@hotmail.com,223A3B3A972A16F0F7684DCC76B7AA61DF46A5B6428533E7DD43EFA3847E1BB160A01C1EC5D0EEC83850033B84987C2AB312E59A85D0576C91FA68CFB1DE2A1E,Miss,Apirati,Sawamichai
5482881826,tdejsutham@gmail.com,9AFAEE8CDFFFA4298314473CB5F1D87140823BC48BC2D9C81A02B11ACF6856C6181518B065F7B03D798BDE08A9AA61E4A25EB90A0327E9DDCF2CF1EC311AAC79,Mr.,Thanuphong,Dejsutham
5682985626,pakawat_jo@hotmail.com,D525565F0E1B63CE74B0F836F53235850ED93D70967AC55977DA36107BE9D399CB32CC2D438865A721B02C3809DA055B0A74276C52E8F41103CCBAAA026E84AC,Mr,Pakawat,Chatchaisucha
5783062626,atikarn_15@hotmail.com,7A9108BC2B2B6CCFB0FE769F17CAD440A419868DCA21193D0DD801770D53FAE9576843CAB5A67B38961A21A756822D9302141AF5191C2DA4BA6BC6E19953815A,Miss,Atikarn,Monga
5382476226,mubec_7@hotmail.com,1F4531AF860FD866CEA1665472E51CDD8BDACE806B913AD096974F325C5DAFFE76ADE6A4FEED3BB5E2D5EF9C0A1C7BBE763E9356DD4D7E7C17725AECD108B2D9,Mr.,Nuttaporn,Rochanahastin
5482020826,pjked@hotmail.com,D42426D5CBDA4E61EFC542CB2B127D581A3EDAF13480AAD98FED7630ECBBAB04B8400487702AC27E1F30236EA0811811A8AD8AB1A531429F00ED5BE03DA77CF8,Miss,Prapakorn,Jiwarat
5582058826,i_ho20@hotmail.com,A32BB8CCE5DC4BEACCDB25D1A603D43B052C6019704478E111A345CC6420B00F53CAABC37A840455345CA7DCC14C03FD09014B42B5C4AF924B11FE6939E42FE4,Mr.,Pichai,Puetpaiboon
5482178326,suppasit.j@gmail.com,AFA116F719B096E681136586A043CE25C02988ECE164258D80E644076C1BFFC878A85B932995767C7EA29A9921B1F676DF8ED6C4B0311C79664CE2DA7EF87BC3,Mr.,Suppasit,Jirajaroenying
5582896326,nongkainalove@hotmail.com,7B0E9C720EF1899B801F1D6B368B212B194B9876AA7C9B7D5F5E6CC14F2C1E02F6C8B0A6B7F1F162968CE6A4865604274C7367F5BCEA4EEF161217993CE448AF,Mr.,Ponlasin,Kijmuntarvorn
5783018026,monthirawaroontorn@gmail.com,90FE829D12202BFB29B95B0D52675040E80A62AC9674C187F8FC15A6820CF55560B59B2CC1EA775E231ACD9BD5124C73E7AB49A65D599FB35501D57B1BD707D4,Miss,Monthira,Waroontorn
5682956426,mymintspecial@gmail.com,14217B79687D0C70031376DC0F6099489CFD4D000CD8C3ACA51E2A1D589741F3BBAFA12387FC743BE34F1AC6ED9D9A0BE1FF6CDEDE8B2EAC45714CD38D2D004E,Miss,Nakavaree,Kovitcharoenkul
5382569026,dna_yn04@hotmail.com,1CF574591576AC2A852675431278272373C2F064CA90C2F2905BC9FF790CADDD5BBD70F7D13455120BE3159DC8CCFD730B19A9B37990F05211F485FC14DE490D,Miss,Yonlawan,Chirawatcharadej
5482046126,p.dachoviboon@gmail.com,1073239829D044E10CEF57A08A50B8F4B7E8B845483A63A24C17662BC8172EBDFF17F0BB16EB7AFC5B3586DEAE2543E71C693EF3034251C872DAD4388B0D2A41,Mr.,Pornpavit,Dachoviboon
5782963926,tunyathon@gmail.com,44DA926BEFA92A5B5C41B3DF29A635788E71A3D973B32041C8EFF44FC2CB557781A20325FAC7BA7BA6D4AAAEF6A3D9D4F75F54DDF97862C06043A8C95C6CE53E,Miss,Tunyathon,Koonprasert
5582154326,vincent.milton@fitchratings.com,F9278FD2E89ECBCF66F17B8CE780BCAA57A813F7FBC419F10B89EA6A0AAE6D76CEBF92F75B9C1834C52CA1345970DF978D562742F82B96413ADA929EE953D245,Mr.,Vincent,Scott Milton
5582008426,pok_kazip@hotmail.com,3D27DF696C97380C5645A0CC0D3F06365ACE03D910FB251CEE706BE48C9E0FF699E3E0B114DFA1C5BFDB8C45FED5CB1B0DC15E802B6D993E60CB23E1F1444A01,Mr.,Papangkorn,Keetasatittayakul
5382670626,sitang_promyok@hotmail.com,A4C82D0D93015B831BAA7543835F62C8AB2FD54AB27C2C7BC1F6E1795BEA572DAB5CBAD66B7AC2EF510D965733E3371F7DDDE679D2A690CEBE578C2B9D7FCC59,Miss,Sitang,Promyok
5783040826,sasipen.pongsomboon@gmail.com,F828F07EE92FFB36AC473A85E262421BFE0B09C958EFD2D3D888DE4586640545C98EC814F63B421066B6061F83B5AF847CD59B0B6A75922F1129FC4B8DA61898,Miss,Sasipen,Pongsomboon
5582236126,Ariya.tem@gmail.com,5B94C082A0AB97317B2CDBC9D33ECB4D2A9B90A15C5945EFD616CE3B6B49B2A807EDF537D5A3F054385B1ED3675EEB60F6EB01CEF560E38168C895F4F03BFBE3,Miss,Ariya,Temrungsitornrat
5481866226,kanyada_may@hotmail.com,513639BCFB3CFB1215AA0599FA9F79791DE43445DF5652FA7EAD4EFDF60C6654D9C548950DDF3E5851A7B4046C786663162DE2CD0CF03B1A066D3188838A53B4,Miss,Kanlayada,Na Pattalung
5582254426,ekasak.s@gmail.com,7C90293DED9375490621513BA8FE5EC426B73DE126193CCD104CC005D7617A93C47F013503A7DFCE00576DB497688F8F4B31E5FA3CD0D0D83FAEF7A4B1D1318A,Mr.,Ekasak,Sohsawaeng
5782960026,pete_77@windowslive.com,C935FBC3370574D59AD5160A8E0A145C83494CD6E63630EEEF7252FB75302A2FA2B205A0A63F4F4C8EB0F3ED59EAD20B24AD78E2466EBDC74D2F543AF0CC2BEA,Mr.,Thanisorn,Pasurapanya
5782975426,bnimboonchaj@gmail.com,82D7D65E25069ACB1E7163EA8F3F9733D440623D91C702EBFFBE5686ACC1DF533FB6486F41FF6301354EA16B0C60894E67613975350169054344E6908C7899BA,Mr.,Bodeepajra,Nimboonchaj
5582042726,a_clumsy16@hotmail.com,EFE6EEA1AED1E62E13F72F227282BD8BC84BBFC57E9AA969AA6693A7B3331AA3124A945F66E4B27E2B79D55D2C44405A228AA352F234A2CCF151ACC216978502,Mr.,Pasakorn,Mukdasakul
5581969326,teeraya_kumsattra@hotmail.com,27F5A15A43758C6208A866D7C28968F8F3CF71A2F2B74122CCF81EB928FE60ABE5A5817AFAF5FDF3F251B22E74FD58FB508F9671F4719C57BDC9474C1E1132FB,Miss,Teeraya,Kumsattra
5482201026,polly_pooh55@hotmail.com,D9CCB7DE4008BA367896E881D26089604CDD6944D57637593AFBBA4232E89B6BD973FACBD21D4433A5E0B0A104A4EC53525895AA14722089071815A4179B966E,Miss,Siriporn,Nawasuttipong
5581937226,faiflyhighch@hotmail.com,2DFE0C07326F3C6ED7DEF5E24525F9D9678F9240A8FD730547495E7C4E529042714CEB4A172D1209E467666A50DB1C1DD59C7683A86C333378C8C9E0023E9A6D,Miss,Natthida,Chansingthong
5382624826,wisaram.k@gmail.com,4B291A49EE7C630C370C62D82DC0F238BB5D9356F2C1083D3FDCAFB7036695C5D6718A13374FD37ACA249B4D0E77486EC2D498CE2FBC29F4AA5CD67FE18CD570,Mr.,Wisaram,Khumgasem
5782919326,schattraya@gmail.com,84A803289A9DDDCD3F1ED6F7EA72300A83247EE72BE183CD0BE0C63FA2B17F75ED3D84CEF28192CB92BB08E0D791EAA5A2A804CEE385641FBB46C7AC49302896,Miss,Chattraya,Suphasit
5482907526,poungpetch_k@hotmail.com,E201EEB75ED17E7FEF8CC9C079F51ED0939E57253736BCF47C3F34DDC16F157DED99160FB9B9CAF8049698627DB9DFCF93B8199BAB8C135402FB3F60CA60EDCD,Miss,Poungpetch,Kampolwatchara
5582884826,dew_nawin@hotmail.com,E1DCC89265919254B31D793F244FBC9316B2CA792651DCDA5FD72943488F9605129BDB9582FE288880E23F550FF98D530A83723685EBA02B8882A034B31D370A,Mr.,Nawin,Kritrattanun
5582862026,chetsada.siriniran@gmail.com,3E9AC4E7082DD45687FC36690B3D8E2454ACBE43775F6F6C6425B2E7FE56ED5AA9B3E0758157C2FABA65853D9021AE598F61A4A307CCA83C8D00C9FB65A66C00,Mr.,Chetsada,Siriniran
5782968026,noppaulk@hotmail.com,719E3B75098D7C0ADD220F91741A12CA55E3FB779C69944C442ED89B348981B72A4F8D6024211CACE4FB97C35B5D25E4F604BAF6D1A1E81602A71125A733CDF2,Mr.,Noppaul,Kulsiri
5782964526,thanyaluxm@hotmail.com,C38EC01873FAE0CFF24E3011FCC0A3007BE13E5DDA117CB5694F6DF5D62B3ED2AA63F478C1413E2936E15FC6B71DD99A0343558B7F05F8D488E0E21B3A202911,Miss,Thanyalux,Moothep
5382399626,nenenooney@hotmail.com,D18833C5B9F28E1D37C3048E1808451DE55E2BF632021CE02475C225407588BABD5A3C88DD923C809C7ADBFE699B353062BB9D3DBE7E1948510FB7E14C7AD2AE,Miss,Chonticha,Nantanon
5482865826,jaranapong@hotmail.com,7290D323A45461ADAAAF6733FDAE0C071D2BDB86FAE4AA2D5DA6CE4911E0975ED173D436E315FCD398B4E739D83193E93B727C74BF9B40B18401C2BAA8D40B6B,Mr.,Jaranapong,Rattanasopa
5482148526,kiwija@hotmail.com,A555AFD1A4D86A103BC44ED1711E923B9E604D1406131A494BE5DFC8E4F476E0F893765A989264E50D09261BCAB961BA44BEB6FB727B653C6E5B4DAFC7E959FC,Miss,Wiranyar,Thamvittayapoom
5582851026,bua_aloha@hotmail.com,BC5404811E4AA5E62C219AA1FA658F22E4D0FFA3BE78D755055C53E71D0E351E240ED26EB023FBC6AE126A759DD7D1A37BCA82182CFCB66BC44CEC6160220117,Miss,Kanokwan,Mekthon
5582166926,savithar_solar@hotmail.com,4A531B744B0F3336F237CC55889C1F2D5623B0AFA0C187F6ABF764A296BC3F1ADDB69BB7B22C84C5F80E7C8F325EF3037EC9A12B2A1081F1B3950024F87753A6,Miss,Savithar,Chiarapong
5683010926,honglumphong@gmail.com,C10144D71B969D8FE13355DA8ED475E14999B093E21F6352C1A105E8551A3A0F98E4527E513928CF990FD692FC6E708E438423ABD2139253C1D69666C184BABE,Mr.,Vutichai,Honglumphong
5682983326,Patchareebb@gmail.com,A5CD59884ECF5DA715958526B2ABBE34280A7810F1ED11228DA093BC586F629B447A75C525FF5B561FAA421A8B04F042CB7CD876012DD6654603DC9EB08B0BFA,Miss,Patcharee,Buntoonprayuk
5783001326,friday.florence@gmail.com,A2FFE5822561B5F6117F68D017F344A2744A097A2C7C7609821E49008ABEE5D7DC2AE9B1E3643397A163A311485FF414C23A2AD19A722893346211D22358B366,Mr.,Patanan,Prasertwit
5782951326,dklasukhon@gmail.com,C9DB65B07F73CADA618DF3065774CF6F9863244A0D66EB03CE20587A950FDFFB933072BE1C92F1F9765A8F1E853194D7E78DAA7C3E8F690A80320090F2C88B67,Mr.,Desho,Klasukhon
5682908326,kittitatlohitanon@gmail.com,C353679FAF8ADAEB0D2D4299DF93B1B8F590D3EF45CB2B30F2379978BF7354109D6E8BD9C1E48F2AE223A0AB66EC8FE1A3F63A7B40A9F3FC817630A3152C826C,Mr,Kittitat,Lohitanon
5683014426,joke_za17@hotmail.com,84AB7E381A1824AD79D21FFC4EC3D479F784158B77359C44AFD11E5AA063851E12751BC0AEDA9CC23AD7B98F5D7650F1BCAA7EC708380E0416D9AF1B7786A34B,Miss,Saruta,Thanapikornkun
5683009326,veeraya.ratta@gmail.com,55D2FAF8F994E0518B33240C33B1D87DE6F21B66BFBC00BEFA40C3B19E25FB02E12E885FB08F0CF710B30CFB8FC7492B8EE598E36CC262ABFD87A0826D42C251,Miss,Veeraya,Rattanaworatip
5482244026,freshbelle@hotmail.com,0C29B4BD79BD0C564E4BE2483B495FC5BE38255150B87DE2853ACC2721B54B6CBE0EF3EEE5A34873FD135047A4AABF13A013E3CAB7F2387FF7A9C8BA734711AF,Miss,Araya,Kokasemsook
5482226826,apirat.lert@gmail.com,21919C68249B27461219E623B5815B8BC78F8AED7028092D84A998CA1F69C19B3EA5A5C45F91D3DFCAB0ADA9D29A9CC1FC78B47C27B47277C9FFDBAE8A888B73,Mr.,Apirat,Lertamphainont
5682932326,nishaya.p@gmail.com,084F2D847BF79DA7A519D518FA33477BED91E03BAF2DFAEBBA43E63EB5525980126E16DAF0F3FD1181B47989C75621AF74EFBA77A194469A2CC4883330089D23,Miss,Nishaya,Poolvoralaks
5382696026,ilovebigbeach@hotmail.com,8D726D1963DBAE09B3D4E29B79E3F5ADDAA7A39772432AA885BECDA0571F0A638FD80DD796EAC877AC9BC2A9014D48BBDF2086C92C6A048F442D57136B8190A3,Miss,Saowaluck,Navapradittakul
5783071226,labgirlchase@gmail.com,BA4DCD3715160451196E65B62BB48F1300AF4E86AAF616D89ACB45AD6F87286EB498D2C20E0DDB2AB8772941C92512CABB490CFF5123D9805814DC40C003DD9C,Miss,Asiya,Mehtar
5782994326,promphan.o@gmail.com,086655B25145C4A21EC244ECFBB3BB539CF598A1A61F1EF523689C4ABF4C0CAFA00B07764DC22961711EEE33940894E4BB582FD08945FDC6FCC24923397FC9AC,Mr.,Promphan,Ounchanum
5683034026,surojjana@gmail.com,EB6689158408AEE35ADB6B7ED148D5458073554439A184AD9B787D834C7EAA1DF7103DDDA2B31FF608DE184D7D4F4D08F82BC86884A6ED0FA93E30D31E6BF055,Miss,Surojjana,Poticharnnont
5782949126,dalad.lek@gmail.com,14BD79E84E9B61796E87DBB7D1870148379D47E798D6F9FAEE46D52B62ED8033BCF3144FF70D8AEECFED8EFBB924FE7225763AA244349813430BA1439C87E77B,Miss,Dalad,Sae-Ue
5482099426,bankdeb114@hotmail.com,FE03270FD59FD5246105443F3670F503F6E70021A66724CC6D4313C4425E750877B8C0DD1ED2D1A6B7EA63AC1866C6B6A58C712334AC1CB42642EF65C65EE7C8,Mr.,Yutthapon,Chuleekorn
5582914026,maipil6791@hotmail.com,E4C607F3FFDEDA158001B3234498F5149FEB787B821B86C0FCFE4E1C8C61BB7CFB69DD11F38340E72F763AD752B6AE6342A260F175D1792B6E87CBE517197633,Mr.,Sarawut,Siriwat
5382704326,k9advance@gmail.com,EE2166E11727C30A14984D903A46296A539BF09E369EC2DDFC595C21D7A6F74585EA392AF9CAACFA0EB5A9E608B18D49CEE121C2F62EC343FA6269EB7030DE68,Mr.,Apimuk,Charoenpanich
5782944026,nicharee.ang@gmail.com,44089D1A96E0398D2EC849A00AD165A0F7D1556090B6B992FE12DE7A6D8189BBBE39A52FBBD372C0CC8318475CCEC61FBD55F9C4D77E9733CBFDC092A913B209,Miss,Nicharee,Angsurat
5683046526,ekapongkoosmith@yahoo.com,962CBD85FF172AAE4035D8F85E7B5E451E0503FECC6DA9B462FC24F761700807CE3487033DFDC11BF0B95B193399FA9110E2C6A6C8BD7F90C5DFAFA3CF026368,Mr,Ekapong,Koosmith
5482855526,kawin.vee@gmail.com,20CEAF06352E9D71B191F6D34A6DF61BE43C41A137C2B91BC1BF6A454BF5D15552D264BD87E93FFEE21A1386A85E94908D2E1185A18B01F987C5C909CDC3C3A9,Mr.,Kawin,Weerawatsunthorn
5481914726,benz2569@hotmail.com,8F80CB0D684AB09557CA29F1B19E002A1DFBB9D0536EC1D41C49677377041E9F0BDE5AD9D9985CA040AB56A9A871D9565B9F1009775C9537DC22D83EFAC1E2B8,Mr.,Chawanin,Tritavornyuenyong
5482927026,manuclub@hotmail.com,F6F3506D0A68A870C3E4B9F993EFF747902969384878ADFA1B12AD8CFD156646E87194DDEF11861C362C3E5B5785E2E00166395C7AA47942ECF154C320E46F72,Mr.,Wiboon,Rodsaeng
5481888026,jprakobwit@gmail.com,67F2C65E4218C91097F5DA6EA042034E9F0C3EDF77F7EF90F35872B33EF7B527CF534487C7AD3EFACBFBEBEDBBF7A115860C12E231956EFE11E0AB43ED7CEB9E,Miss,Jinthip,Prakobwit
5683049426,hbabin@hotmail.fr,498212FA881AAD78611F89391ABB7C332C50C2C6AB980E12DC5D93241D2FB2945AADEEFBD00C89C3DF7EB5A5288496BE0E05A56C837AB8A4D44F0D1B5D6D45FE,Mr,Hugo,Babin
5481852426,aue_asc86@hotmail.com,48540A2C2D52CE5D6FA315E0D1B43C8B3913E113E74178BA3E933DFB19036DFA9BA8651457123A3306DE5A4886809DB092BB71E2C8F3BB8BD98EE820D9DC0373,Miss,Kanokporn,Dejchodanan
5783029026,wachiraphan.p@hotmail.com,28F8AB894492CFBDC3651069DD6CBA91C7B95AB7075315F280D6D35EE337EDD3F70C4E744A95AE55A8C7DBD136C36607A586F467EAFDE2569BAA7E30072AEE81,Mr.,Wachiraphan,Payakgul
5582100426,methawat.wit@gmail.com,E477EB6CA161B222B406C2F968163B78FC64C0B25194A850D41645C678A3838CE1A8D3D1022815F8E65D91FE9369A6115DC141D6F82C793B81D162F73463CB40,Mr.,Methawat,Witthayawongul
5683000626,n.warut@gmail.com,D82377E27C99A8928E652376538575DC4716EC7932A3C899BC4EC28383616BBFA7A21F527E3F75FF4893EAFF724731682C616918F6B888F494C040587367DA4D,Mr,Warut,Nimnualchawee
5682976026,pemika89@gmail.com,4BC87A8A201262AD5D773FAAC8F4114A4CA7A9C7DB3E06E450A2EFF55E84F16C43EFB330B07F4FFB10BECC15EF03EB776091156A029FDA0984DB5D9C6A9C7592,Miss,Pemika,Garthong
5782904926,teeac122@hotmail.com,21EF923CF43260F529E622CA4906E0F3CD22A8C8B39BC79559F280CAD3B33C8EAA17E4B214C99EDDBCD106DEAACBAC69F6E7449720C20ABE3BC28D68E8271CB5,Mr.,Kawinkorn,Wangpeerawong
5482242826,aaron555p@gmail.com,F820E813935A1F313D10C07674F8AC31AF326137BBE7FFCE7C31CC90083C1C7E7B1071D8026DCF5B027BA5CD7691F96C9FD2D2A9C54DBC287AD1B9D5B5589E5D,Mr.,Arnon,Jearkjirm
5683043626,minny_miz@hotmail.com,B4B36B15705322169E28610905F1F533560ABBC3A5ABEC297C3FE87717663DA897B73D6440CC8DAFDA34CA3482447617A0A185DBF0796D7506077C3DF006EC2D,Miss,Anyapatch,Apinuthirunchot
5682903126,korn_xyz@hotmail.com,BF15330E70EEB147ACFC6DC4CFF4FD17020460B593BAA924783571AEDB8E5602E70BBD12993994DED77A9624CD8E8EF330576C38F18AFF6AB2E29F05B4600A37,Mr,Korn,Hengvasaraphibul
5682912826,chatupol.j@hotmail.com,0617EBFBE68676B637D99F74F3EFAD2429F99B4EFDDC164000AAEBBB30D241CDFAF6E251F0300268CAA2093338AF65DB2C1CC5FCF56A05AA1EBAA995EB6E9A1B,Mr,Chatupol,Jettanajaroenchai
5382458026,iya_bb@hotmail.com,BD877CF94F1A63123C8BEC5ABDD126B988361989E473EFB80FC6CD5B5F21A0B83850212C94B50A7018538AA741EE5DA65610B4DA6C18E42EDAEA07E1BE5629CF,Miss,Thida,Chonjaracheep
5782984026,gapi_gap@hotmail.com,FA59FA580ECD6A4579759ABAF1E5B94DDED3C25EF775F35DD30435A43C062DC646C86F932E0F5DA85EFE01E702DF91FDBE28A20886174A08D8370259D2FECA7C,Mr.,Paween,Praweenwongwut
5783012226,Forza_del@hotmail.com,2155298EDBB7C1D23DB0D0F081084FC3BD15EF25EC747B4592583FF7B0D661E90C9267D577D0688080AD15EFAFF81D6C20D8B7D541FA82EC7EC92025C213F9BF,Mr.,Pathai,Pairojsakul
5482039826,pongthon.junnapat@gmail.com,D3716891E7C86CDDEA29FD5A0F90D8E192FCD9C5187FBCAC440BA035B285AB43F2173FDD8FB564E57CC4EEEA85A279776ECF7CCD5E41A60FFD5D260D47DE074E,Mr.,Pongthon,Junnapat
5783060326,hataiphat.p@gmail.com,05A2768F29AA4BBBEC18B0C6DA3139DDB8EE2567581C1AB121781BED9302D927450D0471DF6F0BA2C254A4C55D864A03FB66D88EE1CCD6C27B20FEE60E623548,Miss,Hataiphat,Phromnoi
5481865626,Zhouhuijun_mut@hotmail.com,D147E0727276EB84267DEE5F5209D0FAD24711A7F50DFB838EE544DC4420EC15D2BDA50D48256EA081F6E21EBFCBA498EE8F97E22B82838AD5F62EF57600664A,Miss,Kanyarat,Sarathasananant
5782924426,chayakorn_t@hotmail.com,2636867395DFC54C7A0F9C82A27948216F377E7125249DD6B892F1C0C58D0E68019F20578509BF9EECCB06A4AE691678594B709B35DF1E90737FA521EA52CD5B,Mr.,Chayakorn,Tayawuttiporn
5382152926,ekkarinwong@gmail.com,F34A4C895C0EE3616A9076702876B3C0FB17DCE55AC43BC6D2822C13E79E1FE5710AFC639FB15B983CE956629E0436E384A525580199A929DCC9EF43D4C93DC7,Mr.,Ekkarin,Wongsiri
5683012126,sayamolpetchpraphan@gmail.com,3111E3F93883F208656C30E623D4348E3F855A4C094A9565FBE207CF02F450A08E4F3D7745F768ADF042A73CDABA022305300BA9B88E8C1F14A565CA805F1E95,Miss,SAYAMOL,PETCHPRAPHAN
5783070626,bboyboz@hotmail.com,860DD4D140B9786B680982287DE75507DC287AF9EE1E237483ADDD1D9FF3B3A8EAC133ADBF74F24E7C4AF12BB205383673796057DF07AFF92F900EEB7BD7D71D,Mr.,Asawin,Panterdthai
5782953626,tul32@hotmail.com,37FF2F32B94B1DB7C05EDFFE041E16FBAC1079286EA72DDD6A9AFBFD98A092717F5A90ED4FD31AF815E4FA2DB12B379C15BB2C5BF9B4A71929727A79BC0DB0F9,Mr.,Tulyawat,Chatkam
5582061626,ptam10@live.com,A9408894470A3EC47A2F6CEBAB55F69FEA3E9A88F49B35F14C32DB334A034A24FE300178C1F874DDFF024591963A0A30266C324086AFD95C0A070CC6AE6A5DCF,Mr.,Pipat,Tamakorn
5582229826,aiem.onnicha@gmail.com,04745DCF1EBF3E38AD6F7CAA22732B1566848BB3808A06D0282C0F9C87D28D5539BCC2A9532E0D0B251107F37282961A69B94478E12A14D3BF61A9923FD94505,Miss,Onnicha,Aiemjinnasuwat
5782991426,meenpiboonsak@gmail.com,965F8C293E7D84CE59D80A979B03EF72C7678B20463A04F0C6AE30534F20E1BB358541ED892D3CD6824CFA95AF4FD2686133AC37754C0743CBF75F887282C296,Miss,Panita,Piboonsak
5782982826,dr.omega@gmail.com,D2EF9C36E7F7451DA48FA54855D9566CB1C3D6314C687CF63D133442E5EE4B7FEF4BBAC7C689D56672C946ED369FA26BD5ACBE103C96CD72803C7E85D1EF0348,Mr.,Prakarn,Rajcharoensuk
5783017426,Sbhutorn@yahoo.com,7A4DE78F32DDC74CF9EC5A924648280C1D483F0A60F074BD5E8ACA23175193A78745031F9D3C1DFC0DF8E3C226258CF3DE5F3A1E65F47491C876D9596BA4908D,Mr.,Bhutorn,Sukwanitch
5481931326,pop_shi66@hotmail.com,D2E67FFCBF4851B93A92521501F93DCBEFB15926DC2217E60BF20B1A37605706460292783E50CEAC6CDE52A32E8F3C8B8A745F7FB2041EA1837F6695EDD8F975,Mr.,Thitipun,Paisirikul
5783078726,i.nannanp@gmail.com,9B1FA37FE2FD0D572E6B6E2F7F8715C6FA2D4712A9468F70228BD138B4B8C86098D3D1456B4DA151AFAD2B06C1A59F74B278AED8CDF8AF358535314490CF9C06,Miss,Wanlapa,Phianthanaphak
5582002626,bpommata@gmail.com,AF75CB38DEDEB4C7D87A7B51CAF653D5E80B1CE5582DA3842E31E113E2C479C318A101827C04F135A94C8B3125DD8F9734119657EC5490216F70169CC33D8D38,Mr.,Bandit,Pommata
5782935326,j.natthinee@gmail.com,ABB5AF025C23559693D5A7B00586E0B0C21F2C12A6B21AF800C8E3D4FFB2607A6903724017F16C823A53847D9422A98B019FD66468D58CB621AD07FD5C3C7132,Miss,Natthinee,Janwattanapong
5482123826,Wannida.su@hotmail.com,09F69CE346979B71B4FBDC3235D6C756ADFBFFA073C48E9D66B0FF5AC6271F1BA30B00B9387A90B5AD6267BB270725ED961ADD0C5381EFA458D700217A783364,Miss,Wannida,Suvaratananon
5682994226,dearspuppy@hotmail.com,5867CE327AD92D6B4BD40DB2B03831D219B32A000150B4DBDBD5B73F000F46CFC8A4F941A1249F3ABC1A01F6682B7040F179BFD4C8066D1F2431144D7DE4E2DC,Miss,Luxvara,Piamworrakaroon
5783076426,welw_tawi@hotmail.com,04BFEA0ED2F923AFB5D3F77890222E1CBE21856DCB3F63BA7B3A53937A5D1A2FECAC3F4E240E3632353EB0B7BE932A8DF60E34CC35BECB100416B41595534B62,Mr.,Tawi,Thawankijdumrong
5683027626,Dive007@hotmail.com,5B82E1C34DD12027B1B5AB99B276AA9C2BB707B37A5977D9DA8DF4FA74B3BD6976BE5915067823367E39B2CC4694FC0DD86E626FFD697DEAAA551D6F707A5EE0,Mr,Sittidej,Pornsaksit
5782915826,essentialpond99@gmail.com,724EA7333604A5DB0E013569FFFE3E64561B683E3CC0BA9A0FCBC90AAAC9AC1104345E07FC64C99D483E86F70461368638803039024CE913B26C8B5C744DDFFC,Mr.,Jirat,Chaweewanchon
5782966826,sinlapasontayanon@gmail.com,64EDE364225F6391D2611ADFF756DD7B5FCE8DCEBCDCAEFA0C6F8CBEED7CC9C6050A63ACA965E6BD8BA2307353EB5A542AF09B0313FE31983AABCEA95E9A2D55,Mr.,Teerachat,Sinlapasontayanon
5782952026,tirawid@gmail.com,8AD831C143F1436AA317E1A5B8B568D00F5DCA82064643EA0AA6A27CABDA9618C0B39129C0F2ADEE103BADB97AD1C2D30C576BBF06C01222899516DD770046D5,Mr.,Tirawid,Tembundit
5582931626,smit.arunrat@gmail.com,CECA482D1F1AA0473E1D2D118494FCD69AB47205AC14BB3BD256458D891D404C3A296763023CE49DC036DB49074236E139F44557A4EF5A015689AC3B07857405,Miss,Arunrat,Smitasin
5782930126,Micky_ys_5@hotmail.com,100B5447B8157053BCFDFB225173DA85CA15AB4D9ACC86D9E658C02A5DD468A9E2662339D057FE861F2085FE3304E100CB228FF775F3741B9E52B4711ED4EE12,Miss,Yanin,Srirattanalim
5482051226,parima_v@hotmail.com,068BB0EFE0B42C42AE013DE521C3EC840531163B2567E3F7BE1FE13A86B75B71936A9B293AA8761AC0EB8FF8B3F9B8C512B6848077E575A7960B6FCC2C8C73F6,Miss,Parima,Verapornvanichkul
5382600726,pp_hago@hotmail.com,575F9C35A5FFDA056337F9226AC9B398344463C40A3BD26F95118CCFF132DBC8233BDA3C9B5285AB9122199EC734EC1CCFF75BBF37C92AFBBB6B5F537C858B49,Miss,Woralak,Varavinit
5482859026,kwnong@hotmail.com,503BEB1BD2E654CE9BCB5011DB5692ED00A3D7AD988F899FCD5E919B5474AC62F2EBA7ADDEC47B833D5DA7DCD646D4C978D4E7B58D79C088FE058B6BE18665FB,Mr.,Kittipoap,Watcharavasuntra
5782928026,highwave99@gmail.com,757E7AB278CC55A0DD644A6D8E395DBA66893D8E1395B078F7D3BB9EE4485FF9CBDCE019EEB8C03365F577E323448ABD27EC8F11102AE78B04B6F7ADDF2BC3B1,Mr.,Chod,Reankittiwat
5582926526,glob_line@hotmail.com,8F561D8CCA54B101ADBC17B0AA0326FA2EE1B8FA36B03D473D404BD0986270252F8274287A5EE7945349D0DBD91B9A7C5D17875677AA05E57803ACDF604C115A,Mr.,Suwikrom,Keawtaweesub
5482928726,suriyaworakul@gmail.com,B824819EF46F4342D689F6091E95F7B644977A7F30C4614CCA30C92D38CAE19D7A30B239F734B3FA39BA17C96F549EAF857B7F76560E3D5C387E44EA103BDBA8,Mr.,Wiwat,Suriyaworakul
5481993226,napapan.l@hotmail.com,A439A502B2FB1ACCED646EF2EC0F35818205F4FFA79D36E952F83AE916FF3BDC0073840782116ED3926494B69F688A86567D054C6F11C57EC5334EB0827EA763,Miss,Napapan,Lertsurapakdee
5682964426,porawat.t@gmail.com,FFF036D4F4CE5A9B954CE67697D9F0609CCFC9340D4BC9CF7BAEE8A4EC3B3F8C062FAF0AFA61BDBF6ADB985AC48D19ED0ABAE7FDBBA57D58616647B557460E99,Mr,PORAWAT,TANGPIYANAN
5682965026,sumchatkae@hotmail.com,D35FDA3A85F7E3195E39CF8F9B3E9D552E5DD8EF1ACE48B07E79D39E657106177944CF70464B522745AD4592AE093504ABD4A675D0EC0FA1DA68EC24FB22E2E1,Miss,Preeyanan,Tungputthipong
5382524726,pongs60@hotmail.com,D2A54621DE2921FF442242A832DE20B15BB7273AC027BD81B85C67925EA00BE791AFFEB98E4E3674F0AFE3271F5AFF3FA8D42722D1FCF2424D80F9FB49B5A3F7,Mr.,Phongthorn,Thavontanakul
5482221626,tiphathaipcp@yahoo.com,3E3E9C2BD692A557A30DA944CA58DFBDE7FDE7DD070EB7B1B1FBAA689B25D1256E106ECD5827D3BB01D1A090793E29E8C6C88204822401CA9F49F1F22C9AE44F,Miss,Hathaitip,Pichaipharp
5482074726,butook@gmail.com,9CECF293E3AB93B3546679CA1367B2D7CBE2F2980F4F6983496D02C9E632EB2796CDDDF155197B377E4B238C3AF474BFDDFE5AA0D830DD7EA566EC01CA38885E,Mr.,Pakaves,Tabprayoon
5382735826,aim_aimjai@hotmail.com,3FC37CA8A3582CC85B66876075F9E749EE8371CEB9D7230C618C908235EAB4936462631C21A5B909AAB1ED57F735846B9FC232BDCF152132C949E02AD02B64E2,Miss,Aimjai,Jongjiravanichpun
5482056426,paddej@hotmail.com,101A9E89EDECCF185FF88EAF3C3A83BD9B7E79FB19F8C3D7AE1F20A5DE9E7A7C9271CB91AD46113136EE609B1DEA5A6E0F20991000DC405D348F5BF0118FE731,Mr.,Pattanadej,Chaengsrisuk
5582090826,nu_38@hotmail.com,7ACADC2F4167E5A984203AE3289D67721D126A3202F0E89DF34AAE6CC55DF1E91EEAC2FC5517143903FA05EA8ACA56889C0B86F1442D1CDE350BEFF1A5177F80,Mr.,Bhanu,Arunsmith
5582910426,tabo_mintz@hotmail.com,2547AD52D2B02A7504165E0CF19CF8EFDBA814C20C0AEC94BA4D61D924BCD84A75427BFE181F0E6FB87A6C2911CAB3CDFF550C813A5A52C49EDBC312514A77DE,Miss,Worakunya,Tanunvichitra
5482936726,sukhum101@hotmail.com,272B8EA4CA143C9AFA807E805D6A15D667BE41F8DB20D65E7E12CC2D289A86C01CD3109B8B43871D1234EE62F55F3B3CBB65167A8EAE790CC41F5EAF2712DCAF,Mr.,Sukhum,Booppunchart
5682926626,nattanun.lert@gmail.com,679461F57B19F51C64C17B9A392F9F36FBE4F1D53CA1D769443A51B004E315FAFFAE77CFFE4F248A58BF4049F727512B8FC8D08EA676D1E7F45D0EAF5BA703A0,Miss,Nattanun,Lertmanakul
5683002926,witchaya.wit@gmail.com,93D86019FC896E922373E17FC275C3CF3F0F93C92FB8F71880699ED73131A89857267C3E83DCF75CDF862EBF14EF5839D41A209896C1B8661F782D978471B746,Mr,Witchaya,Panyaem
5482942426,saint_luzifer@hotmail.com,A78E697FAFDBF58F221976FE055AE6123AEA778865F32643AEE8639AB0C79E2E02F91E11473E19F4134C7E7CA0A7D3EFE889DAE085CA554A512D8532D6DBCA1A,Mr.,Suwat,Wirabut
5582127426,vsirichaipanich@gmail.com,05E2B036C4FE8D491E5D477147A37B46480C96D12689793ECAE27FA99FB8EDA92ED4601F75CC4BDE4A0DCD8DD20635B3956273AD7C524C13C2E51415F9B60A5A,Miss,Voramon,Sirichaipanich
5482924126,jaonui@hotmail.com,653D806D1CD65708339EEB6B790B54130F2FA9EC395A0539FEF1B2FAE13595810CC0991BFB5409AABF72B613A99ECE33A3442F5AB6720F2BA461E7AAAF7DE0A3,Miss,Warisara,Soporn
5382703726,Omo.doglover@hotmail.com,4AD5E255F26086A5F870A9405FD982A7ADDEB55536B524642673F730FE242FF495C4FA1640D3F2085CC71D5D7555D46D48EA6EC770E7F0883BAB075A04BF0AAF,Miss,Apichaya,Srimaneemongkon
5582872226,thenui_monkey@hotmail.com,509E5F2E3AFF3E53D6D6F80FD3E148E005F0AC2B66B336D3CD69F67F3252E47F01D345A9D8A30C379A94B2A579F200C1828C2A019F3BF8B42221ADE72FE7DF52,Miss,Duangjai,Sae-Tong
5682910526,mallz_t@hotmail.com,C924C1223D6577589DDB3466D505EE9C56CAF6B5BF8A598B82225FB2A5272AD1520FFA9027658BC48530F378B792362662A5C24309087FB206DD399B4DE75714,Mr,Kroekkiat,Voravisuttikul
5482159426,kratic37@gmail.com,889A26DAAE6657D6F4FC3B67427566CB97DC7301BE886D75635D92E6DAFC01005DC57C1CC18685D5C10631A144E103658F9BCD5273128EE82724269090838DFE,Mr.,Sarun,Tunsaringkarn
5783016826,skubacool@gmail.com,157935AFCDF7F00A591206DE777142678FB1691FE366CEC406BE7FEEEF896D444BE1F4925BB76C76DA893694A927EE3BB8CE8652FECB4B1A363C841BD0734795,Mr.,Panuwat,Thongompo
5481903826,channon_kan@hotmail.com,24640201D74539DDE77F2C699B202E04D593DFA95958BB6EA2D137B1D44EC16C77F4F91F791F9C0DB367125B86E58254D90B9E1EA7D9065B1B60912D49149008,Miss,Chananchida,Sukkasem
5482131826,vthongjuta@hotmail.com,61228CFB5185921C951362B1070A0EBD598BC9C6D06B6F6E2188B9B6C89085F2E40752F5F10B02ED42EC6EECCFB17B1633D7DC9FD354C120CD625DBFB614F41B,Miss,Vatcharaporn,Thongjuta
5582035326,payatiya_pis@live.com,A122EBA7290D3D1330022D7C076A87A82078848E12ED201EA79C7C99B6AA1BF7CA6E98475FAAC7B8DC8D77FCD9BA77C075E51E4F5D43990F5911B5B53E91A780,Miss,Payatiya,Pisavornukulkij
5382688026,koisuay@yahoo.com,BB3D8599252FF6EBFF4116EEF65632D865830C1C2E211540EA49DD0DA0D49B5354B3075C1A009A67D8867924132BDB22397FB7D41160AAA76BED52D7A53A28A5,Miss,Supaporn,Assarasakorn
5582205726,st.sunisa@gmail.com,24EF59DE04CAC08A3EC5D31A4C73B7F6513FF7501E6C0983ECE6B4F8BF77E29BD29BA8CACF07EA87B875DBD6398A77DF90B2EBECF17912D6C0EEA74F00129385,Miss,Sunisa,Tangthanatrakul
5782905526,karnsiree.r@hotmail.com,B596800DC1733091521BEAD07135D23D0C4CF3556A44C2D0B90063F959DB32230254723376ABC5161D73DC309285D9CA1FE1CB664770CBD3F11F7F90DEABCEF0,Miss,Karnsiree,Rujiratpichathorn
5683033326,pty1196@live.com,E031F5B1AE0F70612C9D124F7FFD5956232B1457DBD8EC8D116D27C8CD959C7F50AB5BAF437DE57BCC9671BD05546E3B0EDDDCD64F2B661DF8823F8B22E6BF89,Mr,Sumedh,Chalermkanjana
5382356626,karittus@hotmail.com,50E02F2FAB05A1C891321A5883630130595FD853E9063CAC436FB2D843BDE24C5A205974DBBD66774EFE82AAA5E08285C032CAA77910416B35C5F6A15A39E9FF,Mr.,Korakot,Kamolnetrapisutt
5582936826,usanee_jin@hotmail.com,B40BD9B5A50C89C88A5FFF81EF2172B2323BAC9BA4BB0C3A145C3C62AB59DF3F842FD225075D61A43FD250F2FFE66A551EA24F09906D83235B2161F397D45878,Miss,Usanee,Tangpatiphan
5783037026,wit.yoodee@gmail.com,C20FBC7BC968882E408A415CE7D402B582E55796A017AD4618D35F1839933CA26C2A4D32DB90678883C77FCF15EF4863346CC75B8F772A8341811D7C48D42CD6,Mr.,Wit,Yoodee
5683032726,suu.ooh@gmail.com,A1EFF1D7B1BE74704A436679731CA970BB7CC964B54952AB43534041D84A4A55F5BE39BCFC6FE72F53ABB7D1DCA80AFD2C062D688DE40F02894666E205B03D42,Miss,Supaporn,Sirigamolsantichai
5382550026,bank@bangrak.com,85C054176B4B00F71A0517E109A41B596A199C180F455D97D12C6E1C22F18061BCA53FA458E4011842AEEAF652588657DD69B351BC325334D47B58F6CE476D8B,Mr.,Phattarapol,Kiratisin
5683038526,apinya.bb@hotmail.com,BAD0858C34063632BD93E23F4F57203AA9493898728D1376876A58B0DB4EA79574FB5927AA1236560BDEB9F90BA71A1ADD40D2104CF8D2A6515462C014FB98D6,Miss,Apinya,Buntrapichai
5782970226,yui_ya_ja@hotmail.com,57CE33DBF7E4C50C640C95154D7012DC1832E2D51A9CFDCD0C67206967F40C7A636D316D9EF3C3B4B55E9D191781B4E08D735085C845331A6DCF9195D8F8C77F,Miss,Napaporn,Klongvanitchakij
5582050726,phanthep_l@hotmail.com,CBE44DE6B918B2665A6D7083BFB1D721A0C5A7D899067B3794E5453AE81E2F95224BDB9925CB5408AEDE7983BFDA1A59E1B400647184A3067CF2542062EDB8A0,Mr.,Phanthep,Luangwiriya
5782922126,chanoknun.wut@cimb.com,6BFCC4026B5F162799A6DC8305C09DB9C1674AC616BD5C7422A45FBB6D0816AC163047C47A1F426F4F4C6B5B5042C671EABC4FDC7310FD5B183EEF59DC274604,Miss,Chanoknun,Wutthinitikornkij
5683003526,nuinuizy@gmail.com,182515442377E6F86F160E645334568680B39AC87654697F62ED8EBB9C46D39992B82B9FEBC15CEBDC5C92B3E724F5A0762A216ECEB89F28E8026EF58AA5BE7F,Miss,WICHUDA,SURAWATTANAWAN
5581899026,draft_kop@hotmail.com,C683569D451117301BBF8374446DA410FF18D84368882172948AD917A97A5588F70FD3F6B0AAD004E58DE117675411B5C1A0C4F3235C04B90D16F850CB7ED569,Mr.,Jirayu,Chandrasakha
5582922026,suyanee.o@hotmail.com,3CEF91AE28CF9DF99C96A92CABA2D19DD36F98B21C6682BE18830BE1E998972A6340ADF861FDA66EB3DDFF8641040EBF322E26319BF2DFFE89CFE93536C73B53,Miss,Suyanee,Opaswiboonkij
5582226926,amornthep.ghogar@gmail.com,92A881051A0D26BA0FE4A65CB1039C10E18718C68591EFB6AFBF883B672A328BC8BA8C13FDAA90EEDC018C280782CBBD2A842ACBD9A5F3B8965012A1BA489234,Mr.,Amornthep,Ghogar
5482128026,varorith.chirachon@gmail.com,BA3253876AED6BC22D4A6FF53D8406C6AD864195ED144AB5C87621B6C233B548BAEAE6956DF346EC8C17F5EA10F35EE3CBC514797ED7DDD3145464E2A0BAB413,Mr.,Varorith,Chirachon
5482196626,namspueng@gmail.com,CF18FE7CE35A1DCD93BE97FF977AD69EF4FA70C6BB6E7733F4EB45C6C0FEC073647536030E1415AF0389C32BA58C69CEC95CEEDB4B680B94F10DD30D32B55DAD,Miss,Sineenath,Mahaphirom
5482156526,becks_wee@hotmail.com,0064A203AC45CC2D245F7C9BB0766042B6B1DF01B91DEAE3C9636EFAF657FBCE62F8AE4291FBAE79A7A2ED52D4E9F56550E54AEB9FB6A39631745D6B732F813E,Miss,Weeruthai,Kittipipatputi
5582856226,gowgrai.s@gmail.com,E66CF86F03EE0287B6EE1DCE873683E0CEC894839F39675456CC74D91A02DF5EE801E07713C1EA99DF7626E2E77051ABB5DD56A84494B1C3AD49D75E7E1580F9,Mr.,Gowgrai,Sumitmoh
5782972526,ziizniie@live.com,A05EC46B8D0554FDD69B882C321D4F1E1A1CEDD701473BED729A0C01E825D9A693855BFAA98363AD9BC5531FB0666E6D4396C08F559BD4BF8D56A23A5203F3CE,Miss,Numbut,Pongsumritphol
5782977726,gam.orangee@gmail.com,BD37DD94C2F239A412408CE6989930CC42B27A59916B808BF7B7ECF6EA99B4E34E6F0D9646E3E0173FC594F05E16ED56E756C85BDE774EFB936ADB66A1C84EBD,Miss,Busakorn,Wongwanit
5582029626,paopatzz@hotmail.com,ADF8DA58A1ECAA0F30C9526A428B5948A1C7D9906161E3B5D9F9756BB5128AFD3D301DE980917F38B2E03BBCE283BF7763BD3FBE3924E327392B9DEF9FAF0802,Mr.,Paopuch,Siriruchatapong
7123456789,napat.p@conceptseries.net,C0D5D09AAAB80397D7DD4C00EA92DC4A259AE853EEB8B533042E999583A4467E277D0874EB76C1598E73261A0E821338F05388AC64A66CE27F8609E7EAE33F6D,Mr.,Napat,Parkpien
5482925826,mickey_za13@hotmail.com,479919356D26BB64BE0118C3829056D5CF673E55F8EEB4F1348FAAE25B76B89465A9AF910047A5DF3E62E41AF1C4A96C4EB852024BBFF636552DB332CBA015C8,Mr.,Varoon,Boonrumluektanom
5683041326,alex.manoonpol@gmail.com,4944A72C5ADF4DF51DEA338E049C5958FA9C04CF40B7E8D6E798782506774FEF34C5BEE004B7569C3A1B7999E2AAB9607198092F955345261E216103289DE2B9,Mr,Alex,Manoonpol
5382469926,naranant@hotmail.com,55ED188DFB152698783AB47D9B17FA9456821648142C1CD4262DC9499F01C92A8DBDA5A4E918ADE4CA596EBF8EDAA3A2BDA78E9E801A04322D4326D8144DD1C4,Miss,Naranant,Hathaivichien
5382477926,natamon_a@hotmail.com,CC3D998300D48EA9321418C16B340DA2D8F877BCFE2DC7C766528EC2DEFDBD2593F0D8B53A5E90244E18EBBA615383363ABF07F7D338F1557D5DF1870F76F3F2,Miss,Natamon,Akarasewi
5482175426,gapooklook@gmail.com,A88BB83111861B3C7AAF64D1C49DF6FB8214B2A0DBC8065842D8C835C1920ECF8E669238AE1C0995DD3868B725F3D89363F081E0734D0F1DB5E695C240A98FBC,Mr.,Supachot,Lowattanakul
5382564826,monchaiake@yahoo.com,3F455977460719E6E2688E26A2BD2BEE0892ACA9945A686B3FFA346BB25DD5B6BD7A120894D5DAD92802D46E4F473B50F4D834EE17E74DCE19D36F48683FFE4A,Mr.,Monchai,Roongwatanayothin
5783047226,siridej.putsorn@gmail.com,F471C3CD38BA8FD01B09C9AE8D805F43C419CD5A92E892868C22EE0031C49C8FE0617A1CF871FCC85B33FC0BD88B6C280A4D87DB7286B473284E04BA2A51F810,Mr.,Siridej,Putsorn
5783008826,pimnipaf@gmail.com,E3A8DBAB1303D0D6DFC121D1C3457E7A95DEE76B26083FF267991A25D0A9EEDC565775A260EF2E18AC1DC4525C33DA5BBAB11C9C614B0A6452C0F31DC36C151D,Miss,Pimnipa,Foojinphan
5482874426,tukkae_tum@hotmail.com,2E26597A1D4F94D393BB87B365D7D85321915AF27665BE760C44A346FCC839743F9B341BCB040A059C26BA403CC8368F34C0A354D70E138B862DA75B555AA9F7,Mr.,Chayathorn,Chaisuwan
5582873926,duangpor@hotmail.com,07CA11FE38E389B87825C4754C49DC525DD3898FE750594FB217E70FB19E7F68784F14611ABD17D414CAF3A9B6A9C8243780BE32BA19E16E230A734D220F01FF,Miss,Duangporn,Dusitkasem
5782967426,teerachart.p@gmail.com,D60BB109B5C6F3D6A8AC58DB16E9DB8391E7606938F32D55DFA617680EEF455B7B7E636AE006DD0B8E7BAE33FD44BF3C02E73998DBD88AF2664DB32564423CD9,Mr.,Teerachart,Phuthamrongwat
5482948226,ap_pear325@hotmail.com,7CF9391B01A78F853B9C00BEC9700A376370E7C4C6EEF57634DD466143F14C6EF3FDF06E6BC36C91F9B9218C474AF8EB6CE2D887D7F370B2C83DC8F59B2D4A75,Miss,Arpavee,Tor-ekbundit
5682937526,t.g.enerell@gmail.com,E7E9180F0113321203AAF238FEADD3FB47DC50AA2616DF2E8431B5F6959C9B1ECE24B48C1AF7E020C472AC44A6BCE85E8759BC2EC5D1D75A83E1B77DC851C9C3,Miss,Tasawadee,Laungsuwan
5682997126,t.wannapa@yahoo.com,4CAF32854C0AC442725263B4E474C620AC22406A6B35DB16F319AF12824DD93D635AC9E85EA6AD90BB8FC629D071727B5263A2F0F12C8DD4E3D1D14887D10C3F,Miss,wannapa,tantipak
5682938126,tip_a_kid@hotmail.com,ADED596F6CC13CC9107EF85DE841221B91B3FEF8C1F1FA5B1C33B48E375D071F915B167F2EDD1FB1F50DF51D680CFDC1722A41842B3BEC5485A84E0DD5AFF0C4,Mr,Tippadon,Watcharadirokkul
5682979926,d.pongsatorn@hotmail.com,12474F6937CBCA57746DB39AF828D38E33C4C8A7A35DEC80EB74972D04AD8C8BE45EC3248FE8FE9E20CAD81202516F59A0216FFB5B2017A4117A23246E5FAAE2,Mr,PONGSATORN,DANKUL
5683024726,sorajak.frame@gmail.com,3E4FF07AAA026907F3EEB9450553667523205A94E367B362762F7D6099553923EB6FF07502A0BD281BA657B5E63BEBE26A09DCB52442456DD3CC8B7EDDB0C99B,Mr,Sorajak,Chanjirawittaya
5783022526,matheepa@yahoo.com,068DC05F76F688E1B1A6FDAFDB21AAC684274DDF8071879FC10E8D0F0E870F2F454B65F39881581EF61ABC84131EC9F5C607E675F4574056DDDD6835862FFC18,Mr.,Mathee,Prasertkijaphan
5482955626,keerati@teamfurn.com,692A06351FB3BD7A662AF255AE03000857567312423DABE34DD959492267424EF654566DDEA51B999C85A214FF3FB9897DBD7C6484F5D2B672C4D6ED5FA88B1D,Mr.,Keerati,Kiatsamutthara
5481999026,knawat@gmail.com,A3E86BD43F7544E8FC1454BDC59D0D614E291548EBC6FA6F49FD55E99C6168CCDABB5D2180068D9796D4562B26E028132CB5FCE5E65D93E1E537705B6583A6B9,Mr.,Nawat,Kujareevanich
5482030026,piyames.a@gmail.com,EE710BCC94FFF55EA1AD690F887A2FD1479CCEDB1E27FE798ED15E9B92604AF63C8E08DD3AD5923D40A592CB6D9994818450D75446A424CC26EBFDFBB792FF3E,Mr.,Piyames,Arayatakul
5581888126,aloao_ao@hotmail.com,7CE5D2E534F9DEC89EB666D49DE990EF66F3C5FDB191E4D75CA5401F9CF51C1FFCFCE9A0F1F001864852F202C67F48EE86236E48043C735E9AC148D3EA5CA66B,Miss,Chantarakarn,Tavivorakiat
5582115926,feicarter@hotmail.com,DE5B3F24247E7F4CC1326706BDEC8822283F0BCBC4769ECE0E1CFCF60CD6E2FB64B7A54526BA49D9C615838EA09AE4895C7635D165515526BD3710DFC16D6646,Mr.,Ratanapon,Carter
5382102526,ki_kook@hotmail.com,73AB8130BE6AA24085ADD6F8143C0F53E6C0A252E04783F98223C967FE8D1EB997A4C174F26BF31C1E5F4390188B13092CD3CCEB5F5606FAC64FC16D69F9F578,Miss,Pimonpan,Chainaranon
5582088626,panika.aimmy@gmail.com,5706DC2944473C07EBDCCE77EFBFB8EC4F9811587950542C8E571AD39FFB1598B6088A23BB07896CBEEAA6E186FE89F954DE9FFDD773580C96990235750517A9,Miss,Panika,Banhansupavat
5682952926,nneng91@gmail.com,510E861AD99D77D3A9A5278581CBD9E563A17225E31503767D22814E5FC666AF81FE7B9C682155EEC2BE7D35D503AA53EDD534DE26736A3F2F43C275156E2042,Mr,Nopphon,Narasri
5682904826,korapun.ns@gmail.com,4A141E1389F4AAD537F0CC058C827D8B9B21A8015E1A21E76CADE6CF41D8D800597DDF0E43F5C56343E19E00789948309AB0F06B43486F0F8419EE9AB1A8A69D,Miss,Korapun,Sumetsittikul
5582863626,johannes.schrank@gmail.com,CF1F512760C5ECB7E454F0D12CAA432F28208C2D074E1163E86705C868DF32AE93A4508E903F1F6F280AE5B7566D4B4E8FCD60A3A7CB79781A6F6F2118219F3B,Mr.,Johannes,Schrank
5682901926,nokky_kikilala@hotmail.com,AA08AB6F88E3E8B068147290D1CEB607F1A321D3B0F46C1E6D7702AFF7975DEF55D5D0DD91A025B89D1D6ABF96C54DAA84B4ACF516C2B211F632CDA09C219BB7,Miss,KANOKWAN,HUTTAYAPIWAT
5683040726,orakarn.ae@gmail.com,79B1D582B5DD0FC851FB54D3F6D550FD4E8B9A8505A29303A4D567EC6A9483A58CCA81C1D2C49A2A7EE7D8BF2254BB74DC426AB81475FA94E628EC33C86ABF97,Miss,Orakarn,Yenmanas
5582921326,funya_cool@hotmail.com,D2EBF20C0DF783E7D2B272D9DB81FE4DC133D922D99362902699C17EC10603DCC6BDB4C4EAF81D48F911BB25AF5AC903FCEDB331AD478AD918A8FD4DC297025D,Miss,Suchaya,Apapat
5282075126,chayuth.sichanasai@gmail.com,F59B91C0EB8DD68CC1A48646D9329F3E639CE26BED727B3B775E27B5D58510F7DF1DEAE40B400D9E4DCC8B779E154F426DFF26E0E3BB98978306254A40902896,Mr.,Chayuth,Sichanasai
5582912726,wit_kwang@hotmail.com,25647866552C944B5CB6477F4C793D21F1262BB353F829B8B4C72A7AED1972D2596299C42031F74B2428AE6B789C3B37B1CEDBC2A6E4654DB82CDE875E5872A8,Miss,Witchayaporn,Sungketkarn
5382413726,anaksunamooncee@hotmail.com,0B5D8DE41828552A783331BF55F4A54EB3318726B7A6D3717081E189A21BFAD8F8D16B9090827EBFE38B4977C8CEE100CBCA3E3741A8C74B2CECD7A2E083375F,Mr.,Napichsukant,Panapoonnang
5582905326,m.thitisomboon@gmail.com,F7E88429530138C7A74EB83EF83A61D14D63E1F266BD63577AF18E035C012E1C47EA6D518C975BE5018F9E2A933541D545203A484ED25B1E2571680BE1B37ECD,Mr.,Manassawin,Thitisomboon
5782999526,acaungboz@hotmail.com,839E7A90B181869C3B78CD391FCBC6FC426BE9199A8CEC14CF5DDD6FD59BDCB53D1E2DC0F31D0DACBF329971FFC741756FE1A1E8B5BB46D5C1A891DFFB4EB0A5,Miss,Patcharapan,Wongpromma
5782938226,nathakuna@hotmail.com,5A59459B29DC05B68095A444F5F57F400088694CC07FAAD3C6195B7D42A9E5852F590DDCF4E5C3D9FFCB9C690785B6F55F4D0E2C2D09310693EF7D48D2F07EC4,Miss,Nathaporn,Kunapornsujarit
5783068426,i_anne_@hotmail.com,25047966FF6B1B6ED4CB675705733018DBE6CACBE153E42AB5A08A8A41BD135995EBC7E46ED636D0EBF140E5DE4167960C994AB962B74BD15626C5DBB89C8E8A,Miss,Anchalee,Bangcharoensap
5683016726,santisook.sr@gmail.com,28B92CB4CC792786FABE041D034ED98ADA3F01C316755183BD64BEFEE1CE6D472D6445D5E84F1CE47ECF56744D5B96BC52BED3D9E96535831D462B5B939725F6,Mr,Santisook,Srisook
5683028226,cinrus@me.com,77BED218188F84063D94D54A6E6DF04052AD282093F3B9FEC98CC74D4F57605C601CF11AE8279395A782A945051E4F1373910DB7F3D35658013737D8D99DB120,Mr,Cinrus,Chaovanapricha
5782978326,benyaphabs@hotmail.com,4341F825DE39D3F066AFB32DA9BF254F3464BC9999D0A5B9BB6BD09E59D264E1130799FFC259AB2188A1B413B90423A6951C7D92C6C5A07CFC98B1A9335628D8,Miss,Benyapha,Srisontisuk
5482921226,worranita_999@hotmail.com,3849124D71A9D7496B6898D1B103810C622BEDD698B6370E59584AFAA828966F7D51E62351069EA50DC35560920C95F3124966375F6C9BDAA6E34682F377B5A8,Miss,Worranita,Muenrak
5382407026,charnk@pttep.com,CBA30517E033EDFD44FF8D819BC44E1092E7AE080DDBF61F9B17D4FAAAC72C546F6D9D6712422CC52389B24492EA5485867ADD37D80AB4FBCC0364979A06FD5E,Mr.,Charn,Karnchanya
5682922026,chatnok.cha@gmail.com,45B0BB85B35E7092342EECB1E3E016ACEF34FFB31B67F7111CE8B0C85284C5B318921BAC5D5DCA21D867170E93274D9F964105FFDB68BE049BE05A0A483CED58,Miss,CHATCHANOK,SRIPRAMOCH
5783005926,pitchanee.t@gmail.com,1AD83A58CE97BEBDC1FE392F7B66D889BEE915E69CCE40D65739461EA43F7785D6434D4CED86B44EA8D25790390DFFDF90AAE7D453F5CCB44B3C0D07FE505DC2,Miss,Pitchanee,Taechapimanwong
5482937326,jeinniez@hotmail.com,DEDAA02EB30F5E535C1E9005FD6146588D92FB8B0227BC00381A390AE3B8780B4391CA5722009365505466BBBB2296F690770ED05FC12D04DFEE98A7D79A0E71,Miss,Sudarat,Pangsuwan
5482037526,ptong26@hotmail.com,62670D1E1EEA06B6C975E12BC8A16131B278F6D7BCBE017B65F854C58476BABA86C2082B259FD0C1310935B365DC40F609971B6810B065E528B0B60119E69F61,Mr.,Phadol,Meekun-iam
5482870926,jetanich@hotmail.com,DADF69BB0167E44642CF35651780301CE5A9586B71970DD21B98AB7F83EDCE058EBCA8221314AAD50DB328E011DC6D17575F8B33D2BBD9423CC61B3E3F5BF123,Mr.,Jetanich,Tangpianpant
5581883026,k.chanapai@gmail.com,5634E47AD744DCDE4128F8E68275E77382606A797A91B31374E01DEAF66BDC0C5C005FB8C9661BFBCE7EFEDFDF18E217CCEFA5A7C354674C27482845775BA0BB,Mr.,Kanet,Chanapai
7712345678,tanakorn-l@rocketmail.com,D7BB388CD0F491F4947BDA18F81EC04102939835E4F7A6EC4DCF5F905353717F86A14C627811BDCDF2567295BA47B3AF2FD9BFAFFF3516172A1FE78DDE296285,Mr.,Ta,Na
5582900126,philip@ende.net,6DF0BF1DA6743B8C94AD0B6281D91E0B467D693550C8027A88C8FA87888FFE21D4B3D319912E58EACE1C8BA31822A46AC27A35327E3ED7A6CC019ECCF9F92730,Mr.,Philip,Manuel  Ende
5582259626,ngamchokpipop_annc2@hotmail.com,ABB4BA0D45655B039475F337A9FF8CFB37A282DB3635AB666ACA33C1BFDF55597658E7B4728EE7CC1BFE9DA985BFD5D59BA94F25163305A77B2C2832305714AF,Miss,Kanjana,Ngamchokpipop
5783058126,sophicha.p@gmail.com,F658132908BA2174454CED9372739C796ECDEB4E3E844CAA55F10D202D40F291F5DD07EF3CA83F6A462947A104AB8EA2CB104AFACA9EF2EC5E2F8DA1518742D7,Miss,Sophicha,Patiyasevi
5783049526,sukanya.wpstp@gmail.com,2CFD5AB77AC7D5C80E54EEB185E27E8A94B8107ABA9AF32B16727D0DF9CA7F2B6B6304DCDE97335B39BE6D785A9EC9B310A9609C44D6E43B630C10993A33AB99,Miss,Sukanya,Wongprasitthiporn
5782956526,moomuensri.s@gmail.com,30677003A9FA9A2099EB33C306E5B2ED18A743FF80942BF85E357D2C7FF9D79372C112C866D7BF1123FD6600CE0A140D77738982E3C1B1CC6A45E3D1753C247D,Mr.,Songtham,Moomuensri
5481934226,nawadee_b@hotmail.com,85F3B965BDEFCD7EE6C51AA9B3F2046915AA6EEE4DAC093F6D7B78D38A970E5D16C839DE5AB75A8E57BF59AD3524A450E4E67E66210930AE9BC9DD029FCA91A1,Miss,Nawadee,Buddhavudhikrai
5481992626,nmeksobhon@gmail.com,0930691413FF3726AF022CF1F5AD2F79F0FA4194A1C3D6ABACB359F2A05CE7B5490E48715A11B3198829993CC3135044FCF37C12D7408A505538901326BB7A17,Mr.,Naporn,Meksobhon
5783045026,swangtal@gmail.com,CD9A154C526EEC8879B3A0007316A77616320887C4131D3CCA907FF3C448A512E661F7546FFFD3755BA193FB48DF7B60A1762356BA8E914C415A2E804D3E1434,Mr.,Savin,Wangtal
5382700826,anantayaw@hotmail.com,62898C5A41766055A9B5DD04FE0DBE2E8E7ACFCF7846A7E6F1FD21EC987B0FADB1FDB167A3121864F3E0C67F3E5E83B31D2AD511CFAFE589D070FC99446D21E4,Miss,Anantaya,Waroonsirithorn
5782907826,karun899@gmail.com,956B06DC8824DDBAE17A545256AD819833BC86E024CA9E4ABFC01A0376F4F04D2BD9710D0DD9222A278AB05431F84D8F80F3C874D22C74B0A7669EA470BBB398,Mr.,Karun,Dansiri
5782983426,pariya_sang@yahoo.com,3D5183B514F759DBCE96A255ABDD4D9C136F30DAC54DDB10141E516354DD2E839DC3C6105AC4980C5DD6DF2B66A2D9C313D873E66905BC212AC97C045BB9BF22,Miss,Pariya,Sangawongse
5382673526,Tangtang_na@hotmail.com,A2BF9013AE12BBB5568745CC2CFB947971ADD06AD7F5998257FA1A7AD920A0B468E3F70232CA73DDA2120FEE0C6DECCB018063D3DBE789D484572BD346D683A8,Miss,Siriporn,Apasirikul
5581975026,non.kao@gmail.com,56C3F7EAEB79B769909D60DBD3BFFD0BD1B95D1B2F524320DB42827B9DDCC924A0D95E1910DE2DEAFCE3CD318AD330C952D88D6880915AAD05515B2808D58EAC,Mr.,Non,Kaonopparat
5282170026,vtummava06@gmail.com,864E121D7D35A9F273FE776B0E1622B50E2D0BBE61B097E7764FC6DA7D20F9D8FCBCD8225EB5F12AC2638A127F59AC4360700F937C5CA5E7A3016B41113B6226,Mr.,Varut,Tummavaranukub
5783015126,Hai_2_u@hotmail.com,CF7882E5D561C95B008DAC451A170F7588F701F799DCE54DFABB50382E42E122FF15239386AB533251F65A620BEDC2B29044544BF7AB6CF5B56A06A34DA43E0D,Mr.,Panupong,Nateetaveesak
5482864126,kelly.karpinski@gmail.com,85FFFDF185EAB00CB1BB78E81407DF952DCE54D9BD14E9D04FB199F2925C9748CB6F0CF4FC47CC95CA05E1467DA7A6BAEABA412256E35C4D693511CA193287F7,Mr.,Kelly,Karpinski
5482134726,opor_or@hotmail.com,3529204440673DBD6942A585F009278AF0A503410A829499647DBAA2213923144A4CE2140B3102217EA98D78D0BD56D83275366C0295516F6B063AAE307BCCE7,Miss,Wunvisa,Meethip
5782913526,Prom_ss@hotmail.com,BB9FA52CB5D244216DA0A7E69B49F865E4B3F93FFBD123C96716DC67A845EA9FB86F160BCEFF13A12AAB048AA0A236C730A58BC45229712769CEC46F5E7BB489,Mr.,Jaturon,Vareesangthip
5482017026,platinya_ka@hotmail.com,76D9BB376544E9C810263EF5B5BC9CBF6EDA3E82AA75CFE321980F736FBDC8BAA813441B3F9F46574602D2A01EF0C5C8EDEAEE3571EA13CB2675C1E9E29EB9A8,Miss,Patinya,Kamalaporn
5683050026,aee_veera@yahoo.com,88907282AE7D2F7E2F1FC036AC02D3185CDB414B3EE40EE96B21E81B7F00C006DB38A187FC19B6C706AD437405B3EB94DC39BA68C0BE83A05FAB9C0187D40C15,Miss,Veerawan,Uangudom
5482861226,kulavat@gmail.com,D44E87DADA1B82747DF7AD685BCAC7F6CDBEAA313BD7D629C0C814A3888054D9C0975224511F864554A851CBD8A44C39FC5C049E98DF17F6552ACCB63B63C0D4,Mr.,Kulavat,Visalsawadi
5582175526,ninejump@hotmail.com,F9E184D0D1CA7B8C21135D9E149EF7DF482F1F7B1D4A61DEF4F84431715BBD65540A1F5DA22483B454116CCE46E1FDAB4F49A1E7B1C046727E3A98004DE9C579,Mr.,Sirawat,Tungmayteekul
5182133826,pongs_007@hotmail.com,ED623F080066714EF0414FD17AAF8151680BA419A16DC680AB77B7FD6A192F079CF42F160873A775391A8EA6B9B8816A0AFC86CB2D8B35B326900B7AD031859E,Mr.,Pongstorn,Suvivatanachaikul
5682917026,jet.ksec@gmail.com,11B71DC390A572C515EF2ADB4B600FFA9FA0CABF687959A8E3D0C0BB4541B6033EADB288D0D552BDE5D6B8EE9B9FEA8555A0BCACB915CF4832CA21E060413839,Mr,JETTANANT,NITTAYASAK
5482911026,Jane_accy@hotmail.com,D24A5734F51E1E40EB59E2780ED329669DA785D6D8D1885B19D8633D2E2D2CD6C060D48B4E5FCEF8B2E34664C5C55AAE95FD63D8DEC92CF42E08FBDDA8FA5FF9,Miss,Penpitcha,Kornchudej
5482198926,sirichut_chatchawan@hotmail.com,5AC2AC5BA94DBCE933C6719CA250BF1752D938F43367AF6618AB9E9E30B57DF701DCDA95287C5AF56D8374ABF292813EFA07E1F287B9E4877FF17969B6735FE1,Miss,Sirichut,Chatchawan
5582118826,rorawongpaisarn@gmail.com,EF5DDAE1BD46C05E567D0D36EE8C0200222FCB894D175F1057AD455FAE6D8A2D808714E7517ED7F4DB3DA3F32AB798D1C014B3D21E6EB7DF7C9E08F1ECB5D930,Miss,Ruedee,Orawongpaisarn
5682990726,poom.bha@gmail.com,1D15B8A1B674A52BDF5FA769F4193D5A76BA591B4512D34C609831F743FC0F8A7A39808D28C7E9B6FC8B115955F9F0439BA01217FA928BB004FEEFAAA7B437B5,Mr,Bhoompong,Bhamoraputr
5683006426,wanw_wan@hotmail.com,4B8A4BB951BDEFD1650A10916D9D3C6F06989DFB74CF21BF6CDD967216B0D6D4A317B29E7EAF2DCAD4B006AD25765F5D921D2E759F9CBD4F8668FB3F9833AD8F,Miss,Wilaiwan,Leelacharoenpong
5582904726,fatalbringer@gmail.com,C27866343F5DE6836B9D4D4E1101E506C8AC4675FE3A8CC3261AE2E156B4EEEF91B7B4B64FD047619778C9400685F56E11C1E2E1BE28219D95005FA537ED4D5D,Mr.,Pasan,Tosiriphatana
5782948526,aing_d@hotmail.com,AF70FFE2D737278BF8B5BEBAF2407A47C4283C79F67270362C0590DC5A7D05A4DADE98FCCBAFB018E98E25F53C3A0C8767BA4CAFC8CDC653B05D196D536EE651,Miss,Duangrudee,Pramualwuttiron
5582857926,lian_kl@hotmail.com,F72A226FF578AAC597BE7A0DF264EFAEACFAC318110D11E8F96FC84B86C94154F415C9AFD2CEF9EBDD9836D2C99E26C12BE586C9DCFBC52777666D5199CA0250,Miss,Kengluck,Tiravongchaipunt
5783077026,asawa_pitch@hotmail.com,34CDDB87ACD5FD9B09E178D6179DAA9B5C961118935DE1F0F3DCCEA3E1A7092CB4C1FCDC8BFED59E78CEF71935BE3644E1EE3E632928649F039383070F6D048B,Mr.,Pitch,Asawasathaporn
5682941026,tanakorn.dhamalongkrot@gmail.com,35D14F57B8EC850A478A1B5C14CED59BFDCCB80DF0CE953B7722C59E6628F846CF104CAA09AD30CC354666B6DC75B78425281D14E88086A9ACC572917F769275,Mr,Tanakorn,Dhamalongkrot
5783031126,vatanyasiri@outlook.com,82B81499EF82D6BF4D4B39AC5965FF3FD69AECE2C8E5E14DD734446DD7BEA0FC967C535FCF6312E3FC81AEB467D61E575DDA61CE2BADEA00AD31B8C82225E7E4,Miss,Vatanya,Sirisuttivoranan
5482227426,amornsomboon@gmail.com,EB792085A8EF6078B1EF5E5B681D7AE428B405D9418CCE424EFA9BA5E0B39E4C23CD96244AAD3CCA15E3D3427C4FB4539E50AE805B47C5D32E19896C3F6C8A94,Mr.,Amorn,Amornsomboon
5382360026,kritnipattime@hotmail.com,7EE67B09565F6161ACE097277BA1AE7F9F7D436717DE969E5D5F2C7B1C985595E7D72693A41A36EC13D0E34F1F969DB7EEAD594B5FB4C689B798A2599041B5B6,Mr.,Kritnipat,Rochnattakul
5482904626,pitipipe@hotmail.com,27D9B4089DC4DB7FA95F7843147BCB1DC3DB09243CD5849CD142FA7474CC52A57A902DA17B36049EDDFDBABE8B9B0861DF4A9A3101A59FB808432DDB860C7DE0,Mr.,Piti,Dhamkhantichoti
5682953526,Nuallyp@gmail.com,39AFD748F4A02EE18F75150CB845E84500FA2D5975E84D8DD5CBE70C53BCAEBB862478A6706EF509F1A946E769CA839E0241C3AC0289518083F50D51378A590E,Miss,Nualnapa,Passararat
5682993626,raiskz@gmail.com,C15C45B65AAB5DD9D26C730B3979F9CDA989985639F210C96B29EA9725A38619317F4BC37A9F67F6B49B9C0510C02C2FA20C1E81E587C8D47BD6F17353EBC508,Mr,Rui,Zhou
5481938826,woobydo@yahoo.com,593D7EB18798FBAF4058DF13CA9B22DDFDC09120FEF5D8D0262DEF6C6BF8A8FF7442634583A59CFCEC30E058AAC2928E7FFC296D789C0A62984ECF38AACD64A4,Miss,Natcha,Phonimdaeng
5382395026,dao_ackorkai@hotmail.com,E06059B9D55C6D119FA328B1284214E99C13E3D95C00E07685ACEB3A7E069CEA894443FE93240648FCB8AC6DECC82C42011E030FC492CE7F180BEA366F859DD7,Miss,Chutdao,Pilaikiat
5382372626,clozer_au@hotmail.com,2A3DDB65C789E4BFAB107E6C60DD68F1FB7583CFEA45FD0EB732813D0E9F23DF6AEB350CFFEAC0F64E733C44D65ED6B2069E05B87066D42DF9AB1926E1902CD5,Mr.,Kitiwat,Akrangsi
5482061526,mookie.kaimook@gmail.com,26DE476E881CB0FFD71AF519F41904A90174B0A3A94CDEB7CD5680383DF02AA1096623D932738184B25FBCBE47A575332B6625FB1C50FADE425BD5E670F2C5DB,Miss,Pitchaya,Janyaroj
5382384126,ploy_kung@hotmail.com,0929E96B084DB182FD7C3602746A4E0BDE752E65AD2C8E1EBE9CBF7B02F70A87B2885415AABBC5723E7C34ED62504686D419D06250A878E8E775180E45E1D3CB,Miss,Jittrapa,Sirisumphan
5581990426,niceverly@gmail.com,E84EB56D30441532AD1AE1608D270E67A894EA2C6C4FB39D537BBF7BD776C168C48DDA17DD26432A17499482DE9E05D80A224E80109ECD4A7ACE6A6844AB4E6C,Mr,Nicholas,James Everly
5582867126,silvy_astari@yahoo.com,39151E0ABA55846EE9DA254E38D513183F083B270D5A5407B37E7E0A8017937DACA41C957227FD9FD74762A8C12D1539B311F2AE8A32070C4276D5CC502D2B98,Miss,Silvy,Astari
5782908426,snowwhite.osk128@gmail.com,E4A5A943B92239CFCCEA2D696B7E4EDD31012F7AD04995C510BC2E022768CF36F10337D35B068D6413B8F78F4A04152A63F5F104D5367595530A1B971A5A9E06,Mr.,Kittikhun,Taechaubol
5682950626,tm_mook@hotmail.com,6391A4BA540B03DA16F1DF91422C303FB036EB71212AFF9825F789AF8A7DF1D3632B4CEE83F1EB978762E2B556ED23FDAE20686C132D3C530458D23846C4BA95,Miss,Teerarat,Piyakulwarawat
5682924326,np_masterpieces@hotmail.com,A43F6DA4E5A341F5F6F4F4DA2BA3E7DDCA6E90E4B15493039D926B58139DD94768A294B8E391A6882315A9AFD9E0691F1167A1ECAD7E6A2C08D87D8317C2AFE9,Mr,Naphat,Anantasirirat
5582009026,paphatsara.m@hotmail.com,AB631DBEE8C2ED289D29BEB2AA963867B44D31D4949B03CF9200D4563089611030BD7750E9C9830ED61E7D875726DAD4534B36E56F14408044E3973662FE43BD,Miss,Paphatsara,Manassewee
5382487126,nootjira_j@hotmail.com,FFF6AC02BD1DD5E7034F75CB305CFF087637BFC251B61AF369E7B664CB45F97A177240E277003FCE93C8837B422FDF94D40DAB577D69DCC5EB5136DACF531C2E,Miss,Nootjira,Jirayus
5682929526,chusuth.nattaya@gmail.com,D9E6762DD1C8EAF6D61B3C6192FC408D4D6D5F1176D0C29169BC24E71C3F274AD27FCD5811B313D681F7E55EC02D73D499C95455B6B5BB503ACF574FBA8FFE85,Miss,Nattaya,Chusuth
5482890426,shadowlead@hotmail.com,1A8BCCCDDE58D8ED4A87DE176182BBBE845C42A4C75BC0CB27CEF7176E45793361EAF14436D6974954B47FCAB75249E283621358A3435D9C3E0F077455FCA6E3,Mr.,Thanaphat,Wattananamkul
5782989226,pongsak_bank@hotmail.com,3AE402E425A77FC0533994E0760ADEFD222F57DA52C0B6DE10ACF7242AA9767350E7B3E1DAA3ECA044042FB44F6616A0D46730E7122092736C76A5B1A7BC286B,Mr.,Pongsak,Saengcharoenwanakul
5682920826,cpiyasil@gmail.com,67E3352ACD055A0F81ED756C7D339B61AE5EE343227A4CAA9813D7888265E36A6B7DF5F67E16F4E1A8FCCCE36B5E57D9DE2905CEE86451913EB37EFF75F4F308,Mr,Chawarat,Piyasil
5582144026,ougntnarak@gmail.com,D56A4AD68E4FF205E60EC45E23A8D9802D35BACE303BEEB0DD377A4BC27EFD3E2914BF7D9D45428A54273359277DCC1A8903F739D30777DE1961D3E4964FBD75,Mr.,Wacharin,Tangseree
5782918726,jeffreyph@gmail.com,8B87B3A905515748CD5EB838E0E71B44A35919FB5958C8DE5B26766BAC74F785B17F9012ECE3BC19AFC84C5D11210919AAC68DFF37BB01617A61111FE091B650,Mr.,Jeffrey,Phuvanartnaranubal
5582167526,savita.namangkalakul@thomsonreuters.com,5262A03781DF63B5EA9044657EC94D285394DF1EFFA472B9D7EDF7E31FFE7E6A2CF2500FE6C85418689E8F06F65769A0B5632AB509418A3D0E8B8C77990C2335,Miss,Savita,Namangkalakul
5683047126,bobby.trcm@gmail.com,8C4A37F8811AF2292D0E3FFF6385AFB9F3E2E0C919052F3059078C2EF935ACED734A83431005E7990AF077C3E35465C6AE2C16BF1429C243CE423017C8BDB029,Mr,Ekkarin,Pitianusorn
5682955826,nanthiyabo@gmail.com,12A8C94A06FEFF438F9C314A1D5206CD8C130480AB1524521AAFDFF4CC9D41EBBB4245B6F1A31871CF44D983E7B8B0F78E8A21B9341DE3A55F820D7D9EC43211,Mr,Nanthiya,Jaroenchaipruck
5382462426,pedtb317@hotmail.com,F613A7D83DB8DECF6486E73E5AA84862A6CB76ABA539A3314E540A305FF11869A2FF3A3589E83B5A99D9E61F093C07C1360B03763669FA3ED304326B2A8F0A90,Mr.,Teerawat,Boonprapasit
5783023126,yud_lp@hotmail.com,FAA5A37A0426E9C7CBB451B717EB1C0CD38331BA915A7081576C920E6FF91F3C5635802E18EA27A797E45D467BF73AAEF64791B807C2A595CC8C39D6AAAF6EE2,Mr.,Yudhavee,Chuenbunluesook
5581914826,kie.chanapa@gmail.com,24C405A8DEC547D77EC838004A5767B97D75DEEBC54595CB4B6F57545295F538A68B5E3F0FB6D254AF685AF5F6B60A93A9014F33DD0F0AF9637308DA9CB0DCBB,Miss,Chanapa,Limpiviriyajit
5783004226,ct_kwang@hotmail.com,70E8044AA41A37FE956B1716F2B5F287BD6F599DEFF3DFF17D2355D33ADD543C613F0A6A5B74AB250D7D514CE4650E86BE22303B638E8B4B95827B79EB4B5155,Miss,Pitchakan,Theekakul
5582869426,kittisumeta@gmail.com,A8E19E71362C9CAC02DC9B0A07F1E1542D11BF5D4BD5ECA7848C74DE95B4326F96C65D642F3051A3CD3958804EA118A56AB21E6E5ADB0B52F1CC2E5E9464BF98,Mr.,Natthaphong,Kittisumeta
5581966426,pete1985@gmail.com,FB118D4F42D4D18C4624F9823530060AF645705F70AC2CD40889302650CF9D8188CB6482DB73CBAB1A5BD62D0D3C2612E250DED7B30C1C1494BC01D78E21C494,Mr.,Tanya,Wongpornpenpap
5582933926,real_fair@hotmail.com,7924B792B1FA2078F3C0ED3FFEEEB65ED05455F9DFD08BB0BBC08277554D3537FFC2444F3F0E3F2F48A2D97536A2FF46366B97FC6B247E25FAB0E692310A9D18,Miss,Athitaya,Saewong
5683044226,ampond.isamr@gmail.com,1C0CC5698A872BF77D3389C1C7A2588AEC17DA64BFF016876FFF45DAEA09C56C0AC16DF464EF4B38AC75B76693833012FB0F71348D26F79259DEBCCD74EEF4AE,Miss,Amporn,Kaennakham
5582123926,bkkqlm@gmail.com,D159518009A624A014C0C7A0EA4C191A0E33E9D688133EED2CC80DA5EAD0557BE2ECEB3989A41833DD0F0212D11CB29C505C77711D2B81A81191A2D1A7D6ED4D,Mr.,Liming,Qi
5582075426,praew.mpt@gmail.com,CA6CE556B7B052E7384453E56B192892EF969DFE4452AFE2E034D5193FEFED34A591376A0456333757BDFC5F9AD0745CFD79255909EA952DEDE875C7E2C33D4D,Miss,Praew,Teuytowong
5582903026,padorn@gmail.com,BDF4E5666D4E4F53A0C77EA26332212A4C252AF4B2148318E89E07C987DF81FCD2BAC8995BA966711FCFA7668EB8C57B5E3B51A6F2B055EA440468D45A7087AF,Mr.,Padorn,Wuwongse
5582189326,sansaradollar@hotmail.com,0F1829489F6D0B60A748033213BDAE913EA1BD135241D33CC6D8F2FEAB119DC1ACD7AC4CC64BF0138A2A33117D9111FAD3ED5E1850F8FA88644A1EE0438192AC,Miss,Sansara,Chuansomsook
5582932226,ljycool@gmail.com,D3690B8707F134FF90586E44C218DC05660A89D2C7AAA598D2CF78CA57CFCDCCFE37EF2B26B1049780C0FE02CC8ED2192F52EFEE60D062A8EC2708EC738B39E7,Mr.,En,Li